<svg width="23" height="27" viewBox="0 0 23 27" fill="none" xmlns="http://www.w3.org/2000/svg">
<path d="M11.5002 25V2M11.5002 25L21 15.7236M11.5002 25L2 15.7236" stroke="white" stroke-width="3" stroke-linecap="round" stroke-linejoin="round"/>
</svg>
