<svg width="22" height="23" viewBox="0 0 22 23" fill="none" xmlns="http://www.w3.org/2000/svg">
<path d="M5.7982 12.2498H8.20975V22.629C8.20975 22.834 8.36858 23 8.56459 23H12.6535C12.8495 23 13.0083 22.834 13.0083 22.629V12.2987H15.7806C15.9608 12.2987 16.1125 12.1573 16.1331 11.9701L16.5541 8.14897C16.5657 8.04384 16.5338 7.93856 16.4666 7.85969C16.3992 7.78075 16.3028 7.73557 16.2017 7.73557H13.0084V5.3403C13.0084 4.61825 13.3803 4.25211 14.1138 4.25211C14.2184 4.25211 16.2017 4.25211 16.2017 4.25211C16.3977 4.25211 16.5566 4.08599 16.5566 3.88114V0.373713C16.5566 0.16879 16.3977 0.00274516 16.2017 0.00274516H13.3243C13.304 0.00170645 13.259 0 13.1925 0C12.6933 0 10.9579 0.102461 9.58709 1.42088C8.06824 2.8819 8.27937 4.63124 8.32983 4.93454V7.73549H5.7982C5.60219 7.73549 5.44336 7.90154 5.44336 8.10646V11.8788C5.44336 12.0837 5.60219 12.2498 5.7982 12.2498Z" fill="white"/>
</svg>
