<svg width="9" height="12" viewBox="0 0 9 12" fill="none" xmlns="http://www.w3.org/2000/svg">
<path d="M7.65067 11.1609C7.46244 11.161 7.27843 11.1051 7.12199 11.0004L4.30176 8.72611L1.51293 10.9776C1.3678 11.082 1.19647 11.1439 1.01814 11.1564C0.839813 11.1688 0.66154 11.1314 0.503307 11.0482C0.351014 10.967 0.223706 10.8458 0.135038 10.6977C0.0463706 10.5497 -0.000310689 10.3802 1.5562e-06 10.2076V1.65876C0.000570672 1.219 0.175515 0.797421 0.486469 0.486467C0.797423 0.175513 1.219 0.000569115 1.65876 0H6.94475C7.38451 0.000569115 7.80609 0.175513 8.11704 0.486467C8.428 0.797421 8.60294 1.219 8.60351 1.65876V10.2076C8.60357 10.3328 8.57896 10.4567 8.5311 10.5724C8.48324 10.6881 8.41307 10.7931 8.32458 10.8817C8.2361 10.9702 8.13104 11.0404 8.01541 11.0883C7.89978 11.1362 7.77584 11.1609 7.65067 11.1609Z" fill="white"/>
</svg>
